Modeling of Hydrological Systems in Semi-Arid Central Asia - 2 Case Study River Basins
…
With the values provided in the table above, the discharge index \(Q/P\) is 68.5 % and the evaporative index \(E/P\) is 31.5 %. In other words, the long-term water balance shows that 3 precipitation units gets partitioned into 2 discharge units and 1 evaporation unit, approximately. The aridity index \(\phi\) , when calculated using \(P\) from (Karger et al. 2020) and \(E_{pot}\) from (Trabucco2019?) is 2.7. The aridity index from (Trabucco2019?) is 3.6. These values indicate some uncertainty in relation to the global climate products used. Despite this, they confirm the highly arid characteristics of the basin.

2.1.2 Gunt Basin Hydrology

For the analysis of the key hydro-climatological characteristics, we first load the available decadal and monthly station data1. The data used in this Chapter can be accessed downloaded from the following online repository.

First, we load the available station data of the Gunt River basin into R. Note that the monthly data is available for one discharge station and 4 meteorological stations. See also Table 2.1 for more information on the stations.

data_dir <- "../caham_data/AmuDarya/gunt_data/station_data/"
file_name = 'gunt_data_cleaned.Rds'
gunt_station_data <- read_rds(file.path(data_dir, file_name))
gunt_station_data

# A tibble: 23,352 × 10
   date        data  norm units type  code  station     river basin  resolution
   <date>     <dbl> <dbl> <chr> <chr> <chr> <chr>       <chr> <chr>  <fct>     
 1 1940-01-31  30.5  32.9 m3/s  Q     17050 Gunt_Khorog Gunt  Pyandz mon       
 2 1940-02-29  27.3  30.1 m3/s  Q     17050 Gunt_Khorog Gunt  Pyandz mon       
 3 1940-03-31  24.9  28.4 m3/s  Q     17050 Gunt_Khorog Gunt  Pyandz mon       
 4 1940-04-30  26.4  30.7 m3/s  Q     17050 Gunt_Khorog Gunt  Pyandz mon       
 5 1940-05-31  59    68.5 m3/s  Q     17050 Gunt_Khorog Gunt  Pyandz mon       
 6 1940-06-30 309   232.  m3/s  Q     17050 Gunt_Khorog Gunt  Pyandz mon       
 7 1940-07-31 224   319.  m3/s  Q     17050 Gunt_Khorog Gunt  Pyandz mon       
 8 1940-08-31 201   237.  m3/s  Q     17050 Gunt_Khorog Gunt  Pyandz mon       
 9 1940-09-30 121   117.  m3/s  Q     17050 Gunt_Khorog Gunt  Pyandz mon       
10 1940-10-31  60.8  63.1 m3/s  Q     17050 Gunt_Khorog Gunt  Pyandz mon       
# ℹ 23,342 more rows

This dataframe now contains all available data hydro-meteorological data from the basin. Most data are available at monthly time scales. As an example, the monthly discharge data from Gauge 17050 can be accessed and extracted from the Gunt dataset in the following way.

q_17050_mon <- gunt_station_data %>% filter(type == "Q" & code == '17050' & resolution == 'mon')
q_17050_mon

# A tibble: 972 × 10
   date        data  norm units type  code  station     river basin  resolution
   <date>     <dbl> <dbl> <chr> <chr> <chr> <chr>       <chr> <chr>  <fct>     
 1 1940-01-31  30.5  32.9 m3/s  Q     17050 Gunt_Khorog Gunt  Pyandz mon       
 2 1940-02-29  27.3  30.1 m3/s  Q     17050 Gunt_Khorog Gunt  Pyandz mon       
 3 1940-03-31  24.9  28.4 m3/s  Q     17050 Gunt_Khorog Gunt  Pyandz mon       
 4 1940-04-30  26.4  30.7 m3/s  Q     17050 Gunt_Khorog Gunt  Pyandz mon       
 5 1940-05-31  59    68.5 m3/s  Q     17050 Gunt_Khorog Gunt  Pyandz mon       
 6 1940-06-30 309   232.  m3/s  Q     17050 Gunt_Khorog Gunt  Pyandz mon       
 7 1940-07-31 224   319.  m3/s  Q     17050 Gunt_Khorog Gunt  Pyandz mon       
 8 1940-08-31 201   237.  m3/s  Q     17050 Gunt_Khorog Gunt  Pyandz mon       
 9 1940-09-30 121   117.  m3/s  Q     17050 Gunt_Khorog Gunt  Pyandz mon       
10 1940-10-31  60.8  63.1 m3/s  Q     17050 Gunt_Khorog Gunt  Pyandz mon       
# ℹ 962 more rows
…
